Visualizing data
…
## Warning: package 'janitor' was built under R version 3.4.4

## 
## Attaching package: 'janitor'

## The following objects are masked from 'package:stats':
## 
##     chisq.test, fisher.test

dat <- dat %>%
  clean_names()
# See the names of the variables now:
dat

## # A tibble: 96,064 x 7
##    country_or_terr~ country_or_terr~  year refugees_sup_sup
##    <chr>            <chr>            <dbl>            <dbl>
##  1 Afghanistan      Iraq              2016                1
##  2 Afghanistan      Islamic Rep. of~  2016               33
##  3 Afghanistan      Pakistan          2016            59737
##  4 Albania          China             2016               11
##  5 Albania          Dem. Rep. of th~  2016                3
##  6 Albania          Egypt             2016                3
##  7 Albania          Iraq              2016               23
##  8 Albania          Islamic Rep. of~  2016               17
##  9 Albania          Montenegro        2016                2
## 10 Albania          Peru              2016                1
## # ... with 96,054 more rows, and 3 more variables:
## #   refugees_assisted_by_unhcr <dbl>,
## #   total_refugees_and_people_in_refugee_like_situations_sup_sup <dbl>,
## #   total_refugees_and_people_in_refugee_like_situations_assisted_by_unhcr <dbl>
…
Lets filter the data to just look at refugees that are in Canada that originated in Afghanistan Give this smaller data set a new name. See if you can do this yourself before looking below.

new_data <- dat %>%
  filter(country_or_territory_of_asylum_or_residence == "Canada",
         country_or_territory_of_origin == "Afghanistan") %>%
  select(year, refugees=refugees_sup_sup)
new_data

## # A tibble: 23 x 2
##     year refugees
##    <dbl>    <dbl>
##  1  2016     3177
##  2  2015     2890
##  3  2014     2704
##  4  2013     2700
##  5  2012     2609
##  6  2011     2659
##  7  2010     2727
##  8  2009     3015
##  9  2008     3147
## 10  2007     3470
## # ... with 13 more rows
…
To illustrate the usefulness of ggplot2, lets ammend our data set a little, so that we include data on refugee flows to Canada from several countries:

new_data_3 <- dat %>%
  filter(country_or_territory_of_asylum_or_residence == "Canada",
         country_or_territory_of_origin %in% c("Afghanistan","Syrian Arab Rep.","Lebanon")) %>%
  select(year, origin_country=country_or_territory_of_origin,refugees=refugees_sup_sup)
new_data_3

## # A tibble: 69 x 3
##     year origin_country   refugees
##    <dbl> <chr>               <dbl>
##  1  2016 Afghanistan          3177
##  2  2016 Lebanon               741
##  3  2016 Syrian Arab Rep.     2757
##  4  2015 Afghanistan          2890
##  5  2015 Lebanon               867
##  6  2015 Syrian Arab Rep.     1513
##  7  2014 Afghanistan          2704
##  8  2014 Lebanon              1024
##  9  2014 Syrian Arab Rep.      705
## 10  2013 Afghanistan          2700
## # ... with 59 more rows
…
